<svg xmlns="http://www.w3.org/2000/svg" width="100" height="128.571" viewBox="0 0 100 128.571">
  <path id="Icon_material-delete" data-name="Icon material-delete" d="M14.643,118.786a14.328,14.328,0,0,0,14.286,14.286H86.071a14.328,14.328,0,0,0,14.286-14.286V33.071H14.643ZM107.5,11.643h-25L75.357,4.5H39.643L32.5,11.643H7.5V25.929h100Z" transform="translate(-7.5 -4.5)"/>
</svg>
